result;1220
Variables;
B0;0
B1;0
B10;0
B11;0
B3;1
B4;0
B5;0
B6;1
B7;0
B9;0
R0_1;0
R0_2;0
R10_1;0
R10_2;0
R11_1;0
R11_2;0
R1_1;0
R1_2;0
R3_1;0,5
R3_2;0,5
R4_1;1
R4_2;0
R5_1;0
R5_2;0
R6_1;1
R6_2;1
R7_1;0
R7_2;0
R9_1;0
R9_2;0
Rini;0
T0;0
T1;4
T10;3
T11;11
T3;21
T4;9
T5;17
T6;0
T7;3
T9;18
Tfim;22
Tini;0
